Assignment 5
…
names(tallestbuildings)[2]="Building"
names(tallestbuildings)

## [1] "Rank"        "Building"    "City"        "Height (m)"  "Height (ft)"
## [6] "Floors"      "Completed"   "Material"    "Use"

colnames(tallestbuildings)

## [1] "Rank"        "Building"    "City"        "Height (m)"  "Height (ft)"
## [6] "Floors"      "Completed"   "Material"    "Use"

tallestbuildings %>% group_by(City) %>% summarise(cnt = n()) %>% arrange(desc(cnt))

## # A tibble: 38 x 2
##                  City   cnt
##                 <chr> <int>
##  1         Dubai(AE)    18
##  2 New York City(US)     7
##  3       Chicago(US)     6
##  4     Guangzhou(CN)     6
##  5     Hong Kong(CN)     6
##  6     Abu Dhabi(AE)     4
##  7        Moscow(RU)     4
##  8      Shanghai(CN)     4
##  9      Shenzhen(CN)     4
## 10  Kuala Lumpur(MY)     3
## # ... with 28 more rows
…
